code produk,DESCRIPTION,BARCODE, Harga Sistem Sebelum PPN ,PPN, Harga Sistem Sesudah PPN 
8031090,CAMAY CHIC BLACK 90GR X96,4902430284288,"2,477",248,"2,725"
8031125,CAMAY CHIC BLACK 125gr X72,4902430284301,"3,477",348,"3,825"
8011090,CAMAY NATURAL WHITE 90GR X96,4902430284295,"2,477",248,"2,725"
8011125,CAMAY NATURAL WHITE 125gr X72,4902430284318,"3,477",348,"3,825"
8021090,CAMAY CLASSIC PINK 90GR X96,4902430284646,"2,477",248,"2,725"
8021125,CAMAY CLASSIC PINK 125gr X72,4902430284325,"3,477",348,"3,825"
8111090,SAFEGUARD WHITE 90G X 96,4902430495073,"3,182",318,"3,500"
8112090,SAFEGUARD PINK 90G X 96,4902430495141,"3,182",318,"3,500"
8113090,SAFEGUARD GREEN 90G X 96,4902430495103,"3,182",318,"3,500"
8114090,SAFEGUARD MENTHOL 90G X 96,4902430073899,"3,182",318,"3,500"
8113135,SAFEGUARD GREEN 135G X 72,4902430935593,"4,364",436,"4,800"
8111135,SAFEGUARD WHITE 135G X 72,4902430934800,"4,364",436,"4,800"
8112135,SAFEGUARD PINK 135G X 72,4902430935616,"4,364",436,"4,800"
8114135,SAFEGUARD MENTHOL 135G X 72,4902430935647,"4,364",436,"4,800"
