code produk,DESCRIPTION,BARCODE, Harga Sistem Sebelum PPN ,PPN, Harga Sistem Sesudah PPN 
4501014,PAMP NEW AB HIPPO NB 14S X12,4902430287876,"24,477","2,448","26,925"
4502014,PAMP NEW AB HIPPO SMALL 14S X12,4902430287883,"24,477","2,448","26,925"
4503012,PAMP NEW AB HIPPO MEDIUM 12S X12,4902430287869,"24,477","2,448","26,925"
4504010,PAMP NEW AB HIPPO LARGE 10S X12,4902430287852,"24,477","2,448","26,925"
4505008,PAMP NEW AB HIPPO EXTRA LARGE 8S X12,4902430287890,"24,477","2,448","26,925"
4501024,PAMP NEW AB NB 24S X8,4902430287845,"40,818","4,082","44,900"
4502022,PAMP NEW AB SMALL 22S X8,4902430167765,"39,909","3,991","43,900"
4503020,PAMP NEW AB MEDIUM 20S X8,4902430167772,"39,909","3,991","43,900"
4504018,PAMP NEW AB LARGE 18S X8,4902430167789,"44,136","4,414","48,550"
4505016,PAMP NEW AB EXTRA LARGE 16S X8,4902430167796,"44,136","4,414","48,550"
4750046,PAMPERS DPR SM 46SX4 MP3,4902430426091,"82,682","8,268","90,950"
4760042,PAMPERS DPR MD 42SX4 MP3,4902430426084,"82,682","8,268","90,950"
4770036,PAMPERS DPR LG 36SX4 MP3,4902430426077,"82,682","8,268","90,950"
4780032,PAMPERS DPR XL 32SX4 MP3,4902430426060,"82,682","8,268","90,950"
4503068,PAMP NEW AB MEDIUM 68S X4,4902430172547,"134,136","13,414","147,550"
4504060,PAMP NEW AB LARGE 60S X4,4902430172608,"134,136","13,414","147,550"
4760066,PAMPERS DPR MD 66SX3 MP3,4902430426039,"130,227","13,023","143,250"
4770058,PAMPERS DPR LG 58SX3 MP3,4902430426893,"130,227","13,023","143,250"
4503034,PAMP NEW AB HIPPO MEDIUM 34S X6,4902430287838,"84,886","8,489","93,375"
4504028,PAMP NEW AB HIPPO LARGE 28S X6,4902430287821,"84,886","8,489","93,375"
4505024,PAMP NEW AB HIPPO EXTRA LARGE 24S X6,4902430287845,"84,886","8,489","93,375"
4513056,PAMP AB PANTS MEDIUM 56SX4,4902430406192,"126,500","12,650","139,150"
4514044,PAMP AB PANTS LARGE 44SX4,4902430406208,"126,500","12,650","139,150"
4515036,PAMP AB PANTS EXTRA LARGE 36SX4,4902430406222,"126,500","12,650","139,150"
4760082,PAMPERS DPR MD (76+6)SX3 OLY,4902430465984,"168,955","16,896","185,851"
4770064,PAMPERS DPR LG (60+4)SX3,4902430465991,"168,955","16,896","185,851"
4780052,PAMPERS DPR XL (50+2)SX3,4902430465977,"168,955","16,896","185,851"
4780050,PAMPERS DPR XL 50SX3,4902430426053,"130,227","13,023","143,250"
4501014,PAMP NEW AB HIPPO NB 14S X12,4902430425902,"24,477","2,448","26,925"
4502014,PAMP NEW AB HIPPO SMALL 14S X12,4902430425919,"24,477","2,448","26,925"
4503012,PAMP NEW AB HIPPO MEDIUM 12S X12,4902430425926,"24,477","2,448","26,925"
4504010,PAMP NEW AB HIPPO LARGE 10S X12,4902430425933,"24,477","2,448","26,925"
4505008,PAMP NEW AB HIPPO EXTRA LARGE 8S X12,4902430425940,"24,477","2,448","26,925"
4601001,PAMP ORANGE PANTS S1,4902430436717,"1,636",164,"1,800"
4601101,PAMP ORANGE PANTS M1,4902430300995,"1,545",155,"1,700"
4601201,PAMP ORANGE PANTS L1,4902430301008,"1,545",155,"1,700"
4601301,PAMP ORANGE PANTS XL1,4902430301015,"1,932",193,"2,125"
4601109,PAMP ORANGE PANTS M9,4902430301350,"14,932","1,493","16,425"
4601208,PAMP ORANGE PANTS L8,4902430301367,"14,932","1,493","16,425"
4601307,PAMP ORANGE PANTS XL7,4902430301374,"14,932","1,493","16,425"
4601020,PAMP ORANGE PANTS S20,4902430436700,"25,773","2,577","28,350"
4601120,PAMP ORANGE PANTS M20,4902430301022,"32,636","3,264","35,900"
4601220,PAMP ORANGE PANTS L20,4902430301039,"36,932","3,693","40,625"
4601320,PAMP ORANGE PANTS XL20,4902430301046,"42,932","4,293","47,225"
4602001,PAMP ORANGE TAPED S1,4902430450881,"1,295",130,"1,425"
4602101,PAMP ORANGE TAPED M1,4902430450867,"1,727",173,"1,900"
4602201,PAMP ORANGE TAPED L1,4902430450874,"1,727",173,"1,900"
4602301,PAMP ORANGE TAPED XL1,4902430450850,"2,136",214,"2,350"
4602412,PAMP ORANGE TAPED S12,4902430305143,"14,591","1,459","16,050"
4602110,PAMP ORANGE TAPED M10,4902430305129,"14,591","1,459","16,050"
4602209,PAMP ORANGE TAPED L9,4902430305105,"14,591","1,459","16,050"
4602307,PAMP ORANGE TAPED XL7,4902430305099,"14,591","1,459","16,050"
4602424,PAMP ORANGE TAPED S24,4902430305228,"29,205","2,921","32,126"
4602122,PAMP ORANGE TAPED M22,4902430305075,"29,205","2,921","32,126"
4602220,PAMP ORANGE TAPED L20,4902430305051,"29,205","2,921","32,126"
4602316,PAMP ORANGE TAPED XL16,4902430305044,"29,205","2,921","32,126"
4602142,PAMP ORANGE TAPED M42,4902430450843,"53,250","5,325","58,575"
4602238,PAMP ORANGE TAPED L38,4902430450836,"53,250","5,325","58,575"
4602334,PAMP ORANGE TAPED XL34,4902430450829,"55,818","5,582","61,400"
