code produk,DESCRIPTION,BARCODE, Harga Sistem Sebelum PPN ,PPN, Harga Sistem Sesudah PPN 
6219006,REJ SHP RICH 6MLX80,4902430428460,"3,818",382,"4,200"
6219070,REJ SHP RICH 70MLX48,4902430429405,"4,636",464,"5,100"
6219170,REJ SHP RICH 170MLX24,4902430428316,"12,795","1,280","14,075"
6219320,REJOICE SHP RICH 320ML X12,4902430450355,"22,250","2,225","24,475"
6219600,REJOICE SHP RICH 600ML X6,4902430396554,"32,205","3,221","35,426"
6219900,RJC SHM 900MLX6 RICH HRLV THIDVN,4902430379625,"41,977","4,198","46,175"
6033005,REJOICE COND RICH 5ML X40,4902430252607,"3,591",359,"3,950"
6229070,REJ COND RICH 70MLX48,4902430428408,"4,636",464,"5,100"
6229170,REJ COND RICH 170MLX24,4902430249799,"12,795","1,280","14,075"
6229320,RJC COND 320MLX12 RICH HEROLEV EXP,4902430 452564,"22,205","2,221","24,426"
6035150,REJOICE TRT RICH CREAMBATH 150ML X12,4902430300094,"20,568","2,057","22,625"
6211006,REJ SHP SOFT AND SMOOTH 6MLX40,4902430432603,"3,818",382,"4,200"
6211070,REJ SHP SOFT AND SMOOTH 70MLX48,4902430432245,"4,636",464,"5,100"
6211170,REJ SHP SOFT AND SMOOTH 170MLX24,4902430432269,"12,795","1,280","14,075"
6211320,REJOICE SHP SOFT AND SMOOTH 320ML X12,4902430450362,"22,250","2,225","24,475"
6211600,REJOICE SHP SOFT AND SMOOTH 600ML X6,4902430432375,"32,205","3,221","35,426"
6221070,REJ COND SOFT AND SMOOTH 70MLX48,4902430432252,"4,636",464,"5,100"
6221170,REJ COND SOFT AND SMOOTH 170MLX24,4902430249782,"12,795","1,280","14,075"
6213006,REJ SHP FRUITY AD 6MLX40,4902430458788,"3,818",382,"4,200"
6213070,REJ SHP FRUITY AD 70MLX48,4902430428378,"4,636",464,"5,100"
6213170,REJ SHP FRUITY AD 170MLX24,4902430428439,"12,795","1,280","14,075"
6213320,REJOICE SHP FRUITY AD 320ML X12,4902430450409,"22,250","2,225","24,475"
6215006,REJ SHP ANTI HAIR FALL 6MLX40,4902430468930,"3,818",382,"4,200"
6215070,REJ SHP ANTI HAIR FALL 70MLX48,4902430428361,"4,636",464,"5,100"
6215170,REJ SHP ANTI HAIR FALL 170MLX24,4902430428415,"12,795","1,280","14,075"
6215320,REJOICE SHP ANTI HAIR FALL 320ML X12,4902430473231,"22,250","2,225","24,475"
6225070,REJ COND ANTI HAIR FALL 70MLX48,4902430428392,"4,977",498,"5,475"
6225170,REJ COND ANTI HAIR FALL 170MLX24,4902430249737,"12,455","1,246","13,701"
6216006,REJ SHP ANTI FRIZZ 6MLX40,4902430458764,"3,818",382,"4,200"
6216070,REJ SHP ANTI FRIZZ 70MLX48,4902430428354,"4,636",464,"5,100"
6216170,REJ SHP ANTI FRIZZ 170MLX24,4902430429368,"12,795","1,280","14,075"
6216320,REJOICE SHP ANTI FRIZZ 320ML X12,4902430450393,"22,250","2,225","24,475"
6216600,REJOICE SHP ANTI FRIZZ 600ML X6,4902430399555,"32,205","3,221","35,426"
6226170,REJ COND ANTI FRIZZ 170MLX24,4902430252621,"12,795","1,280","14,075"
6217004,REJ SHP 3 IN 1 4MLX40,4902430428514,"2,250",225,"2,475"
6217070,REJ SHP 3 IN 1 70MLX48,4902430429399,"4,636",464,"5,100"
6217170,REJ SHP 3 IN 1 170MLX24,4902430429375,"12,795","1,280","14,075"
6217320,REJOICE SHP 3IN1 320ML X12,4902430450379,"22,250","2,225","24,475"
6217600,REJOICE SHP 3IN1 600ML X6,4902430396547,"32,205","3,221","35,426"
6217900,RJC SHM 900MLX6 3IN1 HRLV THIDVN,4902430517072,"41,977","4,198","46,175"
6227070,REJ COND 3IN1 70MLX48,4902430,"4,636",464,"5,100"
6227170,REJ COND 3 IN 1 170MLX24,4902430273695,"12,795","1,280","14,075"
6191006,REJ SHP MAN BLACK 6MLX40,4902430458757,"3,818",382,"4,200"
6218070,REJ SHP MANAGEABLE BLACK 70MLX48,4902430428385,"4,636",464,"5,100"
6218170,REJ SHP MANAGEABLE BLACK 170MLX24,4902430428422,"12,795","1,280","14,075"
6218320,REJOICE SHP MAN BLACK 320ML X12,4902430450386,"22,250","2,225","24,475"
6228070,REJ COND MANAGEABLE BLACK 70MLX48,4902430428118,"4,636",464,"5,100"
6228170,REJ COND MANAGEABLE BLACK 170MLX24,4902430428347,"12,795","1,280","14,075"
6182004,REJOICE TRT COMBING CREAM 4ML X40,4902430279307,"3,591",359,"3,950"
6182040,REJOICE TRT COMBING CREAM 40ML X48,4902430279062,"5,455",546,"6,001"
6182100,REJOICE TRT COMBING CREAM 100ML X24,4902430279161,"12,477","1,248","13,725"
6185020,REJOICE TRT CREAMBATH (20ML X3) X8,4902430301305,"7,500",750,"8,250"
